<?xml version="1.0" standalone="no"?>
<!DOCTYPE svg PUBLIC "-//W3C//DTD SVG 20010904//EN"
 "http://www.w3.org/TR/2001/REC-SVG-20010904/DTD/svg10.dtd">
<svg version="1.0" xmlns="http://www.w3.org/2000/svg"
 width="247.000000pt" height="247.000000pt" viewBox="0 0 247.000000 247.000000"
 preserveAspectRatio="xMidYMid meet">
<metadata>
Created by potrace 1.11, written by Peter Selinger 2001-2013
</metadata>
<g transform="translate(0.000000,247.000000) scale(0.100000,-0.100000)"
fill="#000000" stroke="none">
<path d="M525 1558 c-99 -35 -202 -143 -246 -256 -30 -79 -30 -189 0 -258 59
-134 192 -195 429 -198 l125 -1 17 50 c10 28 43 121 73 208 l56 157 -165 0
-165 0 -34 -76 c-19 -42 -35 -78 -35 -80 0 -2 40 -4 90 -4 l89 0 -14 -32 c-11
-28 -19 -34 -51 -36 -51 -5 -77 3 -115 35 -44 37 -73 105 -64 151 10 52 39
106 75 136 29 24 39 26 124 26 l93 0 32 86 c17 47 31 90 31 95 0 13 -308 10
-345 -3z"/>
<path d="M886 1444 c-25 -69 -46 -130 -46 -135 0 -12 223 -12 236 1 6 6 25
-74 54 -228 l45 -237 36 -3 c35 -3 40 2 214 193 98 107 180 194 181 192 2 -2
-10 -41 -27 -88 -17 -46 -48 -132 -70 -191 l-38 -108 82 0 82 0 86 248 87 247
-177 3 -176 3 -60 -67 -61 -67 -34 182 -34 181 -167 0 -167 0 -46 -126z"/>
<path d="M1388 1528 c-9 -24 -25 -67 -37 -95 l-21 -53 384 0 383 0 32 86 c17
47 31 90 31 95 0 5 -161 9 -378 9 l-378 0 -16 -42z"/>
<path d="M2175 1553 c-15 -37 -55 -157 -55 -165 0 -4 4 -8 9 -8 5 0 22 37 37
83 15 45 29 88 32 95 7 19 -15 14 -23 -5z"/>
<path d="M2215 1558 c-2 -7 -18 -50 -34 -95 -21 -60 -26 -83 -17 -83 11 0 76
155 76 181 0 14 -20 11 -25 -3z"/>
<path d="M1793 1248 c-17 -51 -56 -164 -86 -250 -36 -101 -51 -158 -43 -158 6
0 23 35 38 78 14 42 53 155 86 250 39 110 57 172 49 172 -7 0 -27 -42 -44 -92z"/>
<path d="M1838 1263 c-14 -43 -53 -156 -86 -250 -42 -118 -57 -173 -48 -173 8
0 45 91 96 238 46 130 85 243 88 250 2 6 -2 12 -10 12 -8 0 -24 -30 -40 -77z"/>
<path d="M922 1054 c-65 -186 -78 -236 -53 -208 4 5 29 72 56 149 26 77 58
168 71 203 16 43 19 62 11 62 -7 0 -44 -88 -85 -206z"/>
<path d="M961 1054 c-66 -186 -78 -236 -52 -208 5 5 32 77 61 159 29 83 60
174 70 203 15 40 16 52 6 52 -8 0 -42 -81 -85 -206z"/>
</g>
</svg>
